{
  "project_info": {
    "project_number": "668623331072",
    "project_id": "fuel-charger"
  },
  "client": [
    {
      "client_info": {
        "mobilesdk_app_id": "1:668623331072:android:749488c9f90fcf83",
        "android_client_info": {
          "package_name": "creativeappsbyus.fuelbasket"
        }
      },
      "oauth_client": [
        {
          "client_id": "668623331072-mm06lvmhrv54n1s0ohvajoc6dg5cqdkg.apps.googleusercontent.com",
          "client_type": 1,
          "android_info": {
            "package_name": "creativeappsbyus.fuelbasket",
            "certificate_hash": "BF6667ABD1840BDBA4A629969D5C195529A6AF71"
          }
        },
        {
          "client_id": "668623331072-0gsjbeovnjikct905d598d833380fbpv.apps.googleusercontent.com",
          "client_type": 3
        }
      ],
      "api_key": [
        {
          "current_key": "AIzaSyC0dKx_qa3nA3cbGpo6OzjgRWhs5uSyXV0"
        }
      ],
      "services": {
        "analytics_service": {
          "status": 1
        },
        "appinvite_service": {
          "status": 1,
          "other_platform_oauth_client": []
        },
        "ads_service": {
          "status": 1
        }
      }
    }
  ],
  "configuration_version": "1"
}