[
  "Maruti",
  "Hyundai",
  "Honda",
  "Toyota",
  "Tata",
  "Mahindra",
  "Ford",
  "Chevrolet",
  "Audi",
  "Volkswagen",
  "BMW",
  "Renault",
  "Mercedes Benz",
  "Nissan",
  "Skoda",
  "Datsun",
  "Fiat",
  "Bentley",
  "Jaguar",
  "Lamborghini",
  "Bugatti",
  "Aston Martin",
  "DC",
  "Ferrari",
  "Force",
  "ICML",
  "Isuzu",
  "Jeep",
  "Land Rover",
  "Maserati",
  "MINI",
  "Mitsubishi",
  "Polaris",
  "Porsche",
  "Premier",
  "Rolls Royce",
  "SsangYong",
  "Volvo"
]