{ "48812": "GTB",
  "50018": " Abarth 595 Competizione",
  "91127": "Carrera",
  "91128": "Carrera Cabriolet",
  "91129": "Carrera S",
  "91130": "Carrera S Cabriolet",
  "91131": "Turbo",
  "91132": "Turbo Cabriolet",
  "91133": "Turbo S",
  "91134": "Turbo S Cabriolet",
  "1Series0": "118d Sport Line",
  "3DOOR1": "Cooper D",
  "3DOOR2": "Cooper S",
  "3Series3": "320 Sport Line",
  "3Series4": "320D GT Sport Line",
  "3Series5": "320d Luxury Line",
  "3Series6": "320d Prestige",
  "3Series7": "320i Luxury Line",
  "3Series8": "320i Prestige Line",
  "3Series9": "M3 Sedan",
  "3seriesGT10": "320d GT Luxury Line",
  "4-Series11": "M4 Coupe",
  "5DOOR13": "Cooper D",
  "5Series14": "520d Luxury Line",
  "5Series15": "520d Prestige Plus",
  "5Series16": "520i Luxury Line",
  "5Series17": "530d M Sport",
  "6Series19": "640d Design Pure Experience",
  "6Series20": "640d Eminence",
  "6Series21": "M6 Gran Coupe",
  "7Series22": "730Ld Design Pure Excellence",
  "7Series23": "730Ld Design Pure Excellence (CBU)",
  "7Series24": "730Ld M Sport",
  "7Series25": "750Li Design Pure Excellence",
  "7Series26": "750Li M Sport",
  "A-Class35": "A 180 Sport",
  "A-Class36": "A 200 d Sport",
  "A-Class37": "A 200D UEFA Sport Edition",
  "A-Class38": "A180 UEFA Sport Edition",
  "A339": "35 TDI Attraction",
  "A340": "35 TDI Premium",
  "A341": "35 TDI Premium Plus",
  "A342": "35 TDI Technology",
  "A343": "40 TFSI Cabriolet",
  "A344": "40 TFSI Premium",
  "A445": "35 TDI Premium Sport",
  "A446": "35 TDI Quattro Premium",
  "A447": "35 TDI Technology Edition",
  "A448": "35 TFSI Quattro Premium",
  "A649": "35 TDI",
  "A650": "35 TFSI",
  "A851": "50 TDI Quattro Premium",
  "A852": "50 TDI Quattro Premium Plus",
  "A853": "60 TDI Quattro",
  "A854": "60 TFSI Quattro",
  "A855": "60 TFSI Quattro Security",
  "A856": "W12 Quattro",
  "A857": "W12 Quattro Security",
  "Alto80058": "LX",
  "Alto80059": "LX (O)",
  "Alto80060": "LXI",
  "Alto80061": "LXI (O)",
  "Alto80062": "LXI (O) CNG",
  "Alto80063": "LXI CNG",
  "Alto80064": "STD",
  "Alto80065": "STD (O)",
  "Alto80066": "VXI",
  "Alto80067": "VXI (O)",
  "AltoK1068": "LX",
  "AltoK1069": "LXi ",
  "AltoK1070": "LXi (O)",
  "AltoK1071": "LXi CNG",
  "AltoK1072": "LXi CNG (O)",
  "AltoK1073": "VXi ",
  "AltoK1074": "VXi (O)",
  "AltoK1075": "VXi AGS",
  "AltoK1076": "VXi AGS (O)",
  "Amaze77": "E MT",
  "Amaze78": "E MT Diesel",
  "Amaze79": "S CVT",
  "Amaze80": "S MT",
  "Amaze81": "S MT Diesel",
  "Amaze82": "SX MT",
  "Amaze83": "SX MT Diesel",
  "Amaze84": "VX CVT",
  "Amaze85": "VX MT",
  "Amaze86": "VX MT Diesel",
  "Ameo87": "Comfortline (Metallic) Petrol",
  "Ameo88": "Comfortline Petrol",
  "Ameo89": "Highline Petrol",
  "Ameo90": "Trendline (Metallic) Petrol",
  "Ameo91": "Trendline Petrol",
  "AMGGT92": "S",
  "Aria93": "Pleasure 4X2",
  "Aria94": "Pride 4X4",
  "Aria95": "Pure LX 4X2",
  "Avanti96": "Standard",
  "Aventador97": "LP700-4",
  "Aventador98": "LP700-4 Roadster",
  "BClass99": "B 180 Sport",
  "BClass100": "B 200 CDI",
  "Baleno101": "Alpha",
  "Baleno102": "DDiS Alpha",
  "Baleno103": "DDiS Delta",
  "Baleno104": "DDiS Sigma",
  "Baleno105": "DDiS Zeta",
  "Baleno106": "Delta",
  "Baleno107": "Delta AT",
  "Baleno108": "Sigma",
  "Baleno109": "Zeta",
  "Beat110": "1.0 TCDi",
  "Beat111": "1.0 TCDi LS",
  "Beat112": "1.0 TCDi LT",
  "Beat113": "1.0 TCDi LTZ",
  "Beat114": "1.2",
  "Beat115": "1.2 LS",
  "Beat116": "1.2 LT",
  "Beat117": "1.2 LTZ",
  "Beetle118": "1.4 TSI",
  "Bolero119": "DI",
  "Bolero120": "EX",
  "Bolero121": "LX",
  "Bolero122": "Plus",
  "Bolero123": "Plus - Non-AC BSIII PS ",
  "Bolero124": "SLE",
  "Bolero125": "SLX",
  "Bolero126": "ZLX",
  "Bolero127": "ZLX Special Edition",
  "Bolt128": "QuadraJet XE",
  "Bolt129": "QuadraJet XM",
  "Bolt130": "QuadraJet XMS",
  "Bolt131": "QuadraJet XT",
  "Bolt132": "Revotron XE",
  "Bolt133": "Revotron XM",
  "Bolt134": "Revotron XMS",
  "Bolt135": "Revotron XT",
  "Boxster136": "S Tiptronic",
  "Boxster137": "Tiptronic",
  "BR-V138": "i-DTEC E MT",
  "BR-V139": "i-DTEC S MT",
  "BR-V140": "i-DTEC V MT",
  "BR-V141": "i-DTEC VX MT",
  "BR-V142": "i-VTEC E MT",
  "BR-V143": "i-VTEC S MT",
  "BR-V144": "i-VTEC V MT",
  "BR-V145": "i-VTEC V AT",
  "BR-V146": "i-VTEC VX MT",
  "Brio147": "E MT",
  "Brio148": "EX MT",
  "Brio149": "S MT",
  "Brio150": "V MT",
  "Brio151": "VX (O) AT",
  "Brio152": "VX AT",
  "Brio153": "VX MT",
  "CClass154": "C 200",
  "CClass155": "C 220 d",
  "CClass156": "C 250 d",
  "CClass157": "C 63 S AMG",
  "CaliforniaT158": "Convertible",
  "Camry159": "2.5L - Hybrid",
  "Camry160": "2.5L - Petrol",
  "Captiva161": "2.2 LTZ",
  "Captiva162": "LT",
  "Cayenne163": "Diesel",
  "Cayenne164": "GTS",
  "Cayenne165": "S",
  "Cayenne166": "S Diesel",
  "Cayenne167": "Turbo",
  "Cayman168": "GTS",
  "Cayman169": "S",
  "Cayman170": "S PDK",
  "Celerio171": "LDi",
  "Celerio172": "LDi (O)",
  "Celerio173": "LXi",
  "Celerio174": "LXi (O)",
  "Celerio175": "LXi AGS",
  "Celerio176": "VDi",
  "Celerio177": "VDi (O)",
  "Celerio178": "VXi",
  "Celerio179": "VXi (O)",
  "Celerio180": "VXi (O) Green",
  "Celerio181": "VXi AGS",
  "Celerio182": "VXi AGS (O)",
  "Celerio183": "VXi Green",
  "Celerio184": "ZDi",
  "Celerio185": "ZDi (O)",
  "Celerio186": "ZXi",
  "Celerio187": "ZXi (O)",
  "Celerio188": "ZXi AGS",
  "Celerio189": "ZXi AGS (O)",
  "Ciaz190": "VDi (O) SHVS",
  "Ciaz191": "VDi SHVS",
  "Ciaz192": "VDi+ SHVS",
  "Ciaz193": "VXi",
  "Ciaz194": "VXi (O)",
  "Ciaz195": "VXi+",
  "Ciaz196": "VXi+ AT",
  "Ciaz197": "ZDi SHVS",
  "Ciaz198": "ZDi+ SHVS",
  "Ciaz199": "ZDi+ SHVS RS",
  "Ciaz200": "ZXi",
  "Ciaz201": "ZXi +",
  "Ciaz202": "ZXi AT",
  "Ciaz203": "ZXi+ AT",
  "Ciaz204": "ZXi+ RS",
  "City205": "E",
  "City206": "E Diesel",
  "City207": "S",
  "City208": "S Diesel",
  "City209": "SV",
  "City210": "SV AT",
  "City211": "SV Diesel",
  "City212": "V",
  "City213": "V Diesel",
  "City214": "VX",
  "City215": "VX (O)",
  "City216": "VX (O) BL",
  "City217": "VX (O) BL Diesel",
  "City218": "VX (O) Diesel",
  "City219": "VX AT",
  "City220": "VX Diesel",
  "CLClass221": "500",
  "CLClass222": "600",
  "CLAClass223": "CLA 200 CDI Sport",
  "CLAClass224": "CLA 200 CDI Style",
  "CLAClass225": "CLA 200 CDI UEFA Sport Edition",
  "CLAClass226": "CLA 200 Sport",
  "CLAClass227": "CLA 200 UEFA Sport Edition",
  "CLAClass228": "CLA 45 AMG",
  "CLS-Class229": "CLS 250 CDI",
  "ContinentalFlyingSpurSpeed230": "Base",
  "CooperConvertible231": "S",
  "CorollaAltis232": "1.8 G AT",
  "CorollaAltis233": "1.8 G MT",
  "CorollaAltis234": "1.8 GL MT",
  "CorollaAltis235": "1.8 JS MT",
  "CorollaAltis236": "1.8 Limited Edition",
  "CorollaAltis237": "1.8 VL AT",
  "CorollaAltis238": "D-4D G",
  "CorollaAltis239": "D-4D GL",
  "CorollaAltis240": "D-4D J",
  "CorollaAltis241": "D-4D JS",
  "CorollaAltis242": "D-4D Limited Edition",
  "Countryman243": "Cooper D",
  "CR-V244": "2.0L 2WD AT",
  "CR-V245": "2.0L 2WD MT",
  "CR-V246": "2.4L AWD AT",
  "CR-V247": "2.4L AWD AT AVN",
  "Creta248": "1.4 CRDi L",
  "Creta249": "1.4 CRDi S",
  "Creta250": "1.4 CRDi S+",
  "Creta251": "1.6 CRDi SX",
  "Creta252": "1.6 CRDi SX (O)",
  "Creta253": "1.6 CRDi SX+",
  "Creta254": "1.6 CRDi SX+AT",
  "Creta255": "1.6 VTVT Base",
  "Creta256": "1.6 VTVT S",
  "Creta257": "1.6 VTVT SX+",
  "Creta258": "VTVT SX+ Automatic",
  "Cruze259": "LT",
  "Cruze260": "LTZ",
  "Cruze261": "LTZ AT",
  "D-Max262": "Single Cab",
  "D-Max263": "Space Cab Arched Deck",
  "D-Max264": "Space Cab Flat Deck",
  "D-Max265": "Space Cab Flat Deck A/C",
  "DB9266": "6L V12",
  "DBS267": "6L V12",
  "Discovery268": "HSE",
  "Discovery269": "SE",
  "DiscoverySport270": "SD4 HSE Luxury",
  "DiscoverySport271": "SD4 HSE Luxury 7S",
  "DiscoverySport272": "TD4 HSE",
  "DiscoverySport273": "TD4 HSE 7S",
  "DiscoverySport274": "TD4 S",
  "DiscoverySport275": "TD4 SE",
  "DiscoverySport276": "TD4 SE 7S",
  "DropheadCoupe277": "Base",
  "Duster278": " RXZ 110PS AWD",
  "Duster279": "RXE",
  "Duster280": "RXE 85PS",
  "Duster281": "RXL",
  "Duster282": "RXL 110PS",
  "Duster283": "RXL 110PS AMT",
  "Duster284": "RXL 85PS",
  "Duster285": "RXS 85PS",
  "Duster286": "RXZ 110PS",
  "Duster287": "RXZ 110PS AMT",
  "Duster288": "RXZ 85PS",
  "Duster289": "Standard 85PS",
  "Duster290": "Standard Petrol 104PS",
  "EClass291": "E 200",
  "EClass292": "E 200 Edition E",
  "EClass293": "E 250 CDI Avantgarde",
  "EClass294": "E 250 CDI Edition E",
  "EClass295": "E 350 CDI",
  "EClass296": "E 350 CDI Edition E",
  "EClass297": "E 400 Cabriolet",
  "eVerito298": "D2",
  "eVerito299": "D4",
  "eVerito300": "D6",
  "e2o301": "T0",
  "e2o302": "T2",
  "E63AMG303": "V8",
  "EcoSport304": "1.0L Petrol EcoBoost Titanium Plus MT",
  "EcoSport305": "1.5L Diesel Ambiente MT",
  "EcoSport306": "1.5L Diesel Titanium MT",
  "EcoSport307": "1.5L Diesel Titanium Plus MT",
  "EcoSport308": "1.5L Diesel Trend MT",
  "EcoSport309": "1.5L Petrol Ambiente MT",
  "EcoSport310": "1.5L Petrol Titanium AT",
  "EcoSport311": "1.5L Petrol Titanium MT",
  "EcoSport312": "1.5L Petrol Trend MT",
  "Eeco313": "5-Seater",
  "Eeco314": "5-Seater with A/C+Heater",
  "Eeco315": "7-Seater",
  "Eeco316": "CNG 5 Seater AC",
  "Eeco317": "CNG 5 Seater with Heater",
  "Elantra318": "CRDi Base",
  "Elantra319": "CRDi S",
  "Elantra320": "CRDi SX",
  "Elantra321": "CRDi SX AT",
  "Elantra322": "S",
  "Elantra323": "SX",
  "Elantra324": "SX AT",
  "Elitei20325": "Asta (O) 1.2",
  "Elitei20326": "Asta (O) 1.4",
  "Elitei20327": "Asta 1.2",
  "Elitei20328": "Asta 1.4",
  "Elitei20329": "Era 1.2",
  "Elitei20330": "Era 1.4",
  "Elitei20331": "Magna 1.2",
  "Elitei20332": "Magna 1.4",
  "Elitei20333": "Sportz (O) 1.2",
  "Elitei20334": "Sportz (O) 1.4",
  "Elitei20335": "Sportz 1.2",
  "Elitei20336": "Sportz 1.4",
  "Endeavour337": "2.2L 4Ã—2 MT Trend",
  "Endeavour338": "2.2L 4Ã—4 MT Trend",
  "Endeavour339": "2.2L 4x2 AT Trend",
  "Endeavour340": "2.2L 4—2 AT Titanium",
  "Endeavour341": "3.2L 4Ã—4 AT Trend",
  "Endeavour342": "3.2L 4—4 AT Titanium",
  "Enjoy343": "1.3 LS - 7",
  "Enjoy344": "1.3 LS - 8",
  "Enjoy345": "1.3 LT - 7",
  "Enjoy346": "1.3 LT - 8",
  "Enjoy347": "1.3 LTZ - 7",
  "Enjoy348": "1.3 LTZ - 8",
  "Enjoy349": "1.4 LS - 7",
  "Enjoy350": "1.4 LS - 8",
  "Enjoy351": "1.4 LT - 7",
  "Enjoy352": "1.4 LT - 8",
  "Enjoy353": "1.4 LTZ - 7",
  "Enjoy354": "1.4 LTZ - 8",
  "Eon355": "1.0 Magna+",
  "Eon356": "D-Lite",
  "Eon357": "D-Lite +",
  "Eon358": "D-Lite + LPG",
  "Eon359": "ERA + ",
  "Eon360": "ERA + LPG",
  "Eon361": "Magna +",
  "Eon362": "Magna + LPG",
  "Eon363": "Magna+(O)",
  "Eon364": "Sportz",
  "Ertiga365": "LXi",
  "Ertiga366": "LXi (O)",
  "Ertiga367": "Smart Hybrid LDi ",
  "Ertiga368": "Smart Hybrid LDi (O)",
  "Ertiga369": "Smart Hybrid VDi",
  "Ertiga370": "Smart Hybrid ZDi",
  "Ertiga371": "Smart Hybrid ZDi+",
  "Ertiga372": "VXi ",
  "Ertiga373": "VXi AT",
  "Ertiga374": "ZXi",
  "Ertiga375": "ZXi+",
  "Etios376": "G",
  "Etios377": "GD",
  "Etios378": "J",
  "Etios379": "JD",
  "Etios380": "V",
  "Etios381": "VD",
  "Etios382": "VX",
  "Etios383": "VXD",
  "EtiosCross384": "1.2 G",
  "EtiosCross385": "1.4 GD",
  "EtiosCross386": "1.4 VD",
  "EtiosCross387": "1.5 V",
  "EtiosLiva388": "G",
  "EtiosLiva389": "GD",
  "EtiosLiva390": "J",
  "EtiosLiva391": "JD",
  "EtiosLiva392": "LE Diesel",
  "EtiosLiva393": "LE Petrol",
  "EtiosLiva394": "V",
  "EtiosLiva395": "VD",
  "EtiosLiva396": "VX",
  "EtiosLiva397": "VXD",
  "Extreme398": "LD Non AC",
  "Extreme399": "LD/PS-AC",
  "Extreme400": "SD",
  "Extreme401": "VD",
  "Extreme402": "VD CRDFi 7Seater BSIII ",
  "F-Type403": "Coupe",
  "F-Type404": "R Coupe",
  "F-Type405": "S",
  "F-Type406": "S Coupe",
  "F-Type407": "V8S",
  "FF408": "GT",
  "Fiesta409": "Ambiente Diesel",
  "Fiesta410": "Titanium Diesel",
  "Fiesta411": "Trend Diesel",
  "Figo412": "1.2 Ti-VCT Ambiente",
  "Figo413": "1.2 Ti-VCT Base",
  "Figo414": "1.2 Ti-VCT Titanium",
  "Figo415": "1.2 Ti-VCT Titanium Plus",
  "Figo416": "1.2 Ti-VCT Trend",
  "Figo417": "1.2 Ti-VCT Trend Plus",
  "Figo418": "1.5 TCDi Ambiente",
  "Figo419": "1.5 TCDi Base",
  "Figo420": "1.5 TCDi Titanium",
  "Figo421": "1.5 TCDi Titanium Plus",
  "Figo422": "1.5 TCDi Trend",
  "Figo423": "1.5 TCDi Trend Plus",
  "Figo424": "1.5 Ti-VCT Titanium AT",
  "FigoAspire425": "1.2 Ti-VCT Ambiente",
  "FigoAspire426": "1.2 Ti-VCT Titanium",
  "FigoAspire427": "1.2 Ti-VCT Titanium Plus",
  "FigoAspire428": "1.2 Ti-VCT Trend",
  "FigoAspire429": "1.5 TDCi Ambiente",
  "FigoAspire430": "1.5 TDCi Titanium",
  "FigoAspire431": "1.5 TDCi Titanium Plus",
  "FigoAspire432": "1.5 TDCi Trend",
  "FigoAspire433": "1.5 Ti-VCT Titanium AT",
  "Fluence434": "E2",
  "Fluence435": "E4",
  "FlyingSpur436": "V8",
  "FlyingSpur437": "W12",
  "Fortuner438": "2.5L 4x2 Automatic TRD Sportivo",
  "Fortuner439": "2.5L 4x2 Manual TRD Sportivo",
  "Fortuner440": "3.0L 4x2 Automatic",
  "Fortuner441": "3.0L 4x2 Manual",
  "Fortuner442": "3.0L 4x4 Automatic",
  "Fortuner443": "3.0L 4x4 Manual",
  "Freelander2444": "2.2 TD4 HSE",
  "Freelander2445": "2.2 TD4 S",
  "Freelander2446": "2.2 TD4 SE",
  "Freelander2447": "2.2 TD4 SE Limited Edition",
  "GClass448": "G 63 AMG",
  "Genio449": "Standard",
  "Ghibli450": "Diesel",
  "Ghost451": "Sedan",
  "Ghost452": "Series II Extended Wheelbase",
  "Ghost453": "Series II Standard",
  "Ghost454": "V Specification",
  "GLA-Class455": "200 CDI Sport",
  "GLA-Class456": "200 CDI Style",
  "GLA-Class457": "200 CDI UEFA Sport Edition",
  "GLA-Class458": "200 Sport",
  "GLA-Class459": "200 UEFA Sport Edition",
  "GLA-Class460": "GLA45 AMG",
  "GLC461": "220 d 4MATIC",
  "GLC462": "300 4MATIC",
  "GLE-Class463": "250d 4MATIC",
  "GLE-Class464": "350d 4MATIC",
  "GLE-Class465": "450 AMG 4MATIC Coupe",
  "GLSClass466": "GLS 350 d 4MATIC",
  "Go467": "A",
  "Go468": "D",
  "Go469": "D1",
  "Go470": "NXT",
  "Go471": "T",
  "Go472": "T (O)",
  "GoPlus473": "A",
  "GoPlus474": "D",
  "GoPlus475": "D1",
  "GoPlus476": "T",
  "GoPlus477": "T (O)",
  "GranCabrio478": "Standard",
  "Grandi10479": "1.0 Magna LPG",
  "Grandi10480": "Asta",
  "Grandi10481": "Asta (O)",
  "Grandi10482": "Asta (O) Diesel",
  "Grandi10483": "Asta AT",
  "Grandi10484": "Asta Diesel",
  "Grandi10485": "Era",
  "Grandi10486": "Era Diesel",
  "Grandi10487": "Magna",
  "Grandi10488": "Magna Diesel",
  "Grandi10489": "Sportz",
  "Grandi10490": "Sportz AT",
  "Grandi10491": "Sportz Diesel",
  "GranTurismo492": "Sport",
  "Gurkha493": "Hard Top 4X4",
  "Gurkha494": "Soft Top 4X2",
  "Gurkha495": "Soft Top 4X4",
  "Gypsy496": "King MG413W MPI Hard Top",
  "Gypsy497": "King MG413W MPI Soft Top",
  "Huracan498": "LP 580-2",
  "Huracan499": "LP 610-4 ",
  "Huracan500": "LP 610-4 Spyder",
  "i10501": "Era iRDE2",
  "i10502": "Magna iRDE2",
  "i10503": "Sportz",
  "i10504": "Sportz Blue Drive (Metallic)",
  "i10505": "Sportz Blue Drive (Solid)",
  "i20Active506": "1.2",
  "i20Active507": "1.2 S",
  "i20Active508": "1.2 SX",
  "i20Active509": "1.4",
  "i20Active510": "1.4 S",
  "i20Active511": "1.4 SX",
  "i20Active512": "1.4 SX with AVN",
  "i8513": "Hybrid",
  "IndicaeV2514": "emax GLS",
  "IndicaeV2515": "emax GLX",
  "IndicaeV2516": "LS ",
  "IndicaeV2517": "LS BS-III",
  "IndicaeV2518": "LX",
  "IndicaeV2519": "LX BS-III",
  "IndigoeCS520": "emax GLS",
  "IndigoeCS521": "emax GLX",
  "IndigoeCS522": "LS CR4",
  "IndigoeCS523": "LS TDI",
  "IndigoeCS524": "LX CR4",
  "IndigoeCS525": "LX TDI",
  "IndigoeCS526": "VX CR4",
  "Innova527": "2.5 EV (Diesel) PS 7 Seater BS IV",
  "Innova528": "2.5 EV Diesel PS 7 Seater BSIII",
  "Innova529": "2.5 EV Diesel PS 8 Seater BSIII",
  "Innova530": "2.5 EV Diesel PS W/O A/C 7 BSIII",
  "Innova531": "2.5 EV Diesel PS W/O A/C 8 BSIII",
  "Innova532": "2.5 GX 7-Seater ",
  "Innova533": "2.5 GX 8-Seater ",
  "Innova534": "2.5 VX 7-Seater",
  "Innova535": "2.5 VX 8-Seater",
  "Innova536": "2.5 ZX 7-Seater",
  "Innova537": "2.5 ZX Diesel 7 Seater BSIII",
  "Innova538": "E 7-Seater",
  "Innova539": "E 8-Seater",
  "Innova540": "E PS W/O A/C- 7 Seater",
  "Innova541": "E PS W/O A/C- 8 Seater",
  "Innova542": "G 7-Seater",
  "Innova543": "G 8-Seater",
  "InnovaCrysta544": "2.4 G MT",
  "InnovaCrysta545": "2.4 G MT 8 Seater",
  "InnovaCrysta546": "2.4 GX MT",
  "InnovaCrysta547": "2.4 GX MT 8 Seater",
  "InnovaCrysta548": "2.4 VX MT",
  "InnovaCrysta549": "2.4 VX MT 8 Seater",
  "InnovaCrysta550": "2.4 ZX MT",
  "InnovaCrysta551": "2.8 GX AT",
  "InnovaCrysta552": "2.8 GX AT 8 Seater",
  "InnovaCrysta553": "2.8 ZX AT",
  "Jazz554": "1.2 E i-VTEC",
  "Jazz555": "1.2 S AT i-VTEC",
  "Jazz556": "1.2 S i-VTEC",
  "Jazz557": "1.2 SV i-VTEC",
  "Jazz558": "1.2 V AT i-VTEC",
  "Jazz559": "1.2 V i-VTEC",
  "Jazz560": "1.2 VX i-VTEC",
  "Jazz561": "1.5 E i-DTEC",
  "Jazz562": "1.5 S i-DTEC",
  "Jazz563": "1.5 SV i-DTEC",
  "Jazz564": "1.5 V i-DTEC",
  "Jazz565": "1.5 VX i-DTEC",
  "Jetta566": "1.4 TSI Comfortline",
  "Jetta567": "1.4 TSI Trendline",
  "Jetta568": "2.0 TDI Comfortline",
  "Jetta569": "2.0 TDI Highline",
  "Jetta570": "2.0 TDI Highline AT",
  "Jetta571": "2.0 TDI Trendline",
  "Koleos572": "2.0 4x2 MT",
  "Koleos573": "2.0 4x4 AT",
  "Koleos574": "2.0 4x4 MT",
  "KUV100575": "K2 mFALCON D75",
  "KUV100576": "K2 mFALCON G80",
  "KUV100577": "K2+ mFALCON G80",
  "KUV100578": "K2+ mFALCON D75",
  "KUV100579": "K4 mFALCON D75",
  "KUV100580": "K4 mFALCON G80 6 Seater",
  "KUV100581": "K4 mFALCON G80 5 Seater",
  "KUV100582": "K4+ mFALCON D75",
  "KUV100583": "K4+ mFALCON G80 5 Seater",
  "KUV100584": "K4+ mFALCON G80 6 Seater",
  "KUV100585": "K6 mFALCON D75",
  "KUV100586": "K6 mFALCON G80 5 Seater",
  "KUV100587": "K6 mFALCON G80 6 Seater",
  "KUV100588": "K6+ mFALCON D75",
  "KUV100589": "K6+ mFALCON G80 5 Seater",
  "KUV100590": "K6+ mFALCON G80 6 Seater",
  "KUV100591": "K8 mFALCON D75",
  "KUV100592": "K8 mFALCON G80",
  "Kwid593": "RXE",
  "Kwid594": "RXE Radio Option",
  "Kwid595": "RXL",
  "Kwid596": "RXT",
  "Kwid597": "RXT Driver Airbag Option",
  "Kwid598": "STD",
  "LandCruiser599": "VX",
  "LandCruiserPrado600": "VX - L",
  "Linea601": "1.3L Multijet Active",
  "Linea602": "1.3L Multijet Dynamic",
  "Linea603": "1.3L Multijet Elegante Limited Edition",
  "Linea604": "1.3L Multijet Emotion",
  "Linea605": "1.4L Fire Active",
  "Linea606": "1.4L T-Jet Active",
  "Linea607": "1.4L T-Jet Dynamic",
  "Linea608": "1.4L T-Jet Emotion",
  "LineaClassic609": "1.3 Classic ",
  "LineaClassic610": "1.3 Classic+",
  "LineaClassic611": "1.4 Classic",
  "Lodgy612": "110PS RxL",
  "Lodgy613": "110PS RxZ 7 seater",
  "Lodgy614": "110PS RxZ 8 seater",
  "Lodgy615": "85PS RxE",
  "Lodgy616": "85PS RxL",
  "Lodgy617": "85PS RxZ",
  "Lodgy618": "85PS Std",
  "Lodgy619": "Stepway Edition 7 Seater",
  "Lodgy620": "Stepway Edition 8 Seater",
  "Macan621": "2.0 Petrol",
  "Macan622": "S Diesel",
  "Macan623": "Turbo",
  "Micra624": "XE Diesel",
  "Micra625": "XL",
  "Micra626": "XL (O)",
  "Micra627": "XL (O) Diesel",
  "Micra628": "XL CVT",
  "Micra629": "XL Diesel",
  "Micra630": "XV CVT",
  "Micra631": "XV Diesel",
  "Micra632": "XV Premium Diesel",
  "MicraActive633": "XE",
  "MicraActive634": "XL",
  "MicraActive635": "XV",
  "MicraActive636": "XV S",
  "Mobilio637": "1.5 E i-DTEC",
  "Mobilio638": "1.5 E i-VTEC",
  "Mobilio639": "1.5 RS (O) i-DTEC",
  "Mobilio640": "1.5 RS i-DTEC",
  "Mobilio641": "1.5 S i-DTEC",
  "Mobilio642": "1.5 S i-VTEC",
  "Mobilio643": "1.5 V (O) i-DTEC",
  "Mobilio644": "1.5 V (O) i-VTEC",
  "Mobilio645": "1.5 V i-DTEC",
  "Mobilio646": "1.5 V i-VTEC",
  "Movus647": "CX 7 Seater Captain",
  "Movus648": "CX 7-seater",
  "Movus649": "CX 8 Seater",
  "Movus650": "CX 9-seater",
  "Movus651": "LX 7 Seater Captain",
  "Movus652": "LX 7-seater",
  "Movus653": "LX 8 Seater",
  "Movus654": "LX 9-seater",
  "MU7655": "4X2",
  "MU7656": "4x2 BS III",
  "MU7657": "4x2 HI PACK BS III",
  "MU7658": "4x2 HIPACK",
  "MU7659": "AT Premium",
  "Nano660": "XE",
  "Nano661": "XM",
  "Nano662": "XMA",
  "Nano663": "XT",
  "Nano664": "XTA",
  "NuvoSport665": "N4",
  "NuvoSport666": "N4+",
  "NuvoSport667": "N6",
  "NuvoSport668": "N6 AMT",
  "NuvoSport669": "N8",
  "NuvoSport670": "N8 AMT",
  "Octavia671": "Ambition 1.4 TSI",
  "Octavia672": "Ambition 2.0 TDI",
  "Octavia673": "Ambition 2.0 TDI AT",
  "Octavia674": "Elegance 1.8 TSI AT",
  "Octavia675": "Elegance 2.0 TDI AT",
  "Octavia676": "Style Plus 1.8 TSI AT",
  "Octavia677": "Style Plus 2.0 TDI AT",
  "Omni678": "5-Seater STD",
  "Omni679": "5-Seater STD LPG",
  "Omni680": "E 8-Seater STD ",
  "One681": "2.2 LX ABS-7 Seater",
  "One682": "2.2 SX - 6 seater",
  "One683": "2.2 SX - 7 seater ",
  "One684": "2.2 SX ABS - 7 seater",
  "One685": "2.2 SX ABS-6 Seater",
  "One686": "2.6 EX - 7 seater",
  "One77687": "V12",
  "Outlaw688": "50 Broad walk",
  "PajeroSport689": "4x2 AT",
  "PajeroSport690": "4x4 MT",
  "Panamera691": "4",
  "Panamera692": "Base",
  "Panamera693": "Diesel",
  "Panamera694": "Diesel 250 PS",
  "Panamera695": "Diesel Edition",
  "Panamera696": "GTS",
  "Panamera697": "Turbo",
  "Panamera698": "Turbo S",
  "Phantom699": "Sedan",
  "PhantomCoupe700": "Base",
  "Phoenix701": "200 Broad walk",
  "Polo702": "1.2 MPI Comfortline",
  "Polo703": "1.2 MPI Highline",
  "Polo704": "1.2 MPI Trendline",
  "Polo705": "1.5 TDI Comfortline",
  "Polo706": "1.5 TDI Highline",
  "Polo707": "1.5 TDI Trendline",
  "Polo708": "Cross Polo 1.2 MPI",
  "Polo709": "Cross Polo 1.5 TDI",
  "Polo710": "GT TDI",
  "Polo711": "GT TSI",
  "Prius712": "Z5",
  "Prius713": "Z6",
  "Pulse714": "RxE Petrol",
  "Pulse715": "RxL Diesel",
  "Pulse716": "RxL Diesel ABS",
  "Pulse717": "RxL Petrol",
  "Pulse718": "RxZ Diesel",
  "Pulse719": "RxZ Petrol",
  "PuntoAvventura720": "1.3 Active",
  "PuntoAvventura721": "1.3 Dynamic",
  "PuntoAvventura722": "1.3 Emotion",
  "PuntoAvventura723": "1.4 Active",
  "PuntoAvventura724": "1.4 Dynamic",
  "PuntoAvventura725": "Abarth",
  "PuntoEvo726": "1.2 Active",
  "PuntoEvo727": "1.2 Dynamic",
  "PuntoEvo728": "1.3 Active",
  "PuntoEvo729": "1.3 Dynamic",
  "PuntoEvo730": "1.3 Emotion",
  "PuntoEvo731": "1.3 Sport",
  "PuntoEvo732": "1.3 Sportivo Limited Edition",
  "PuntoEvo733": "1.4 Emotion",
  "PuntoEvo734": "Abarth",
  "PuntoPure735": "1.2L FIRE",
  "PuntoPure736": "1.3L MultiJet",
  "Q3737": "30 TDI S Edition",
  "Q3738": "35 TDI quattro Premium",
  "Q3739": "35 TDI quattro Premium Plus",
  "Q5740": "30 TDI Quattro Premium",
  "Q5741": "30 TDI Quattro Premium Plus",
  "Q5742": "30 TDI Quattro Technology",
  "Q5743": "45 TDI Quattro Technology",
  "Q7744": "45 TDI quattro Premium Plus",
  "Q7745": "45 TDI quattro Technology",
  "Quattroporte746": "Diesel",
  "Quattroporte747": "GTS",
  "R8748": "V10 Plus",
  "RangeRover749": "3.0 TDV6 HSE",
  "RangeRover750": "3.0 TDV6 Vogue",
  "RangeRover751": "3.0 TDV6 Vogue LWB",
  "RangeRover752": "4.4 Autobiography SDV8 Long Wheel Base",
  "RangeRover753": "4.4 SDV8 Autobiography",
  "RangeRover754": "4.4 SDV8 LWB Autobiography Black",
  "RangeRover755": "4.4 SDV8 Vogue SE",
  "RangeRover756": "4.4 SDV8 Vogue SE LWB",
  "RangeRover757": "5.0 V8 SC Autobiography",
  "RangeRover758": "5.0 V8 SC LWB Autobiography",
  "RangeRover759": "5.0 V8 SC LWB Autobiography Black ",
  "RangeRoverEvoque760": "HSE",
  "RangeRoverEvoque761": "HSE Dynamic",
  "RangeRoverEvoque762": "Pure",
  "RangeRoverEvoque763": "SE",
  "RangeRoverSport764": "Autobiography",
  "RangeRoverSport765": "HSE",
  "RangeRoverSport766": "S",
  "RangeRoverSport767": "SE",
  "RangeRoverSport768": "SVR",
  "Ranger769": "Crew 500 EFI",
  "Ranger770": "R500",
  "Ranger771": "RZR 170",
  "Ranger772": "RZR S 800",
  "Rapid773": "1.5 TDI CR Active",
  "Rapid774": "1.5 TDI CR Ambition",
  "Rapid775": "1.5 TDI CR Ambition AT",
  "Rapid776": "1.5 TDI CR Style Plus",
  "Rapid777": "1.5 TDI CR Style Plus AT",
  "Rapid778": "1.5 TDI CR Style Plus Black Package",
  "Rapid779": "1.5 TDI CR Style Plus Black Package AT",
  "Rapid780": "1.6 MPI Active",
  "Rapid781": "1.6 MPI Ambition",
  "Rapid782": "1.6 MPI Style AT",
  "Rapid783": "1.6 MPI Style Black Package AT",
  "Rapid784": "1.6 MPI Style Plus",
  "Rapid785": "1.6 MPI Style Plus AT",
  "Rapid786": "1.6 MPI Style Plus Black Package",
  "Rapid787": "1.6 MPI Style Plus Black Package AT",
  "Rapide788": "V12",
  "Redi-GO789": "A",
  "Redi-GO790": "D",
  "Redi-GO791": "S",
  "Redi-GO792": "T",
  "Redi-GO793": "T (O)",
  "RextonW794": "RX6 MT",
  "RextonW795": "RX7 AT",
  "Rio796": "Dx",
  "Rio797": "GLX",
  "Rio798": "GX",
  "Rio799": "Lx",
  "Ritz800": "LDi",
  "Ritz801": "LXI",
  "Ritz802": "VDi",
  "Ritz803": "VDi ABS",
  "Ritz804": "VXI",
  "Ritz805": "VXI (ABS)",
  "Ritz806": "VXI AT",
  "Ritz807": "ZDi",
  "Ritz808": "ZXI",
  "RS5809": "Coupe",
  "RS6Avant810": "4.0 TFSI",
  "RS7811": "Sportback",
  "SClass812": "Maybach S 500",
  "SClass813": "Maybach S 600",
  "SClass814": "Maybach S 600 Guard",
  "SClass815": "S 350 CDI",
  "SClass816": "S 400",
  "SClass817": "S 500",
  "SClass818": "S 500 Coupe",
  "SClass819": "S 600 Guard",
  "SClass820": "S 63 AMG",
  "SClass821": "S 63 AMG Coupe",
  "S-Cross822": "DDiS 200 Alpha",
  "S-Cross823": "DDiS 200 Delta ",
  "S-Cross824": "DDiS 200 Premia Limited Edition",
  "S-Cross825": "DDiS 200 Sigma",
  "S-Cross826": "DDiS 200 Zeta",
  "S-Cross827": "DDiS 320 Alpha",
  "S-Cross828": "DDiS 320 Delta",
  "S-Cross829": "DDiS 320 Zeta",
  "S4830": "3.0 TFSI Quattro",
  "S4831": "3.0 TFSI Quattro Technology Pack",
  "S5832": "3.0 TFSI quattro",
  "S6833": "4.0 TFSIq",
  "S60834": "D4 Kinetic",
  "S60835": "D4 Momentum",
  "S60836": "D5 Inscription",
  "S60837": "T6",
  "S60CrossCountry838": "D4 AWD Inscription",
  "S80839": "D4 Summum",
  "S80840": "D5 Summum",
  "Safari841": "4X4 LX",
  "Safari842": "DICOR 2.2 EX 4x2",
  "Safari843": "DICOR 2.2 LX 4x2",
  "Safari844": "EXi 4X4 BSII",
  "SafariStorme845": "EX",
  "SafariStorme846": "LX",
  "SafariStorme847": "VX",
  "SafariStorme848": "VX 4WD",
  "SafariStorme849": "VX VARICOR 400",
  "SafariStorme850": "VX VARICOR 400 4WD",
  "Sail851": "Base",
  "Sail852": "Base Diesel",
  "Sail853": "LS",
  "Sail854": "LS ABS",
  "Sail855": "LS ABS Diesel",
  "Sail856": "LS Diesel",
  "Sail857": "LT ABS",
  "Sail858": "LT ABS Diesel",
  "Sailsedan859": "Base Diesel",
  "Sailsedan860": "Base Petrol",
  "Sailsedan861": "LS ABS Diesel",
  "Sailsedan862": "LS ABS Petrol",
  "Sailsedan863": "LS Diesel",
  "Sailsedan864": "LS Petrol",
  "Sailsedan865": "LT ABS Diesel",
  "Sailsedan866": "LT ABS Petrol",
  "SantaFe867": "2WD AT",
  "SantaFe868": "4WD AT",
  "Scala869": "RxE Diesel",
  "Scala870": "RxE Petrol",
  "Scala871": "RXL Automatic",
  "Scala872": "RxL Diesel",
  "Scala873": "RxL Petrol",
  "Scala874": "RXZ Automatic",
  "Scala875": "RxZ Diesel",
  "Scorpio876": "Adventure Edition",
  "Scorpio877": "Adventure Edition 4x4",
  "Scorpio878": "S10",
  "Scorpio879": "S10 AT",
  "Scorpio880": "S10 1.99",
  "Scorpio881": "S10 4x4",
  "Scorpio882": "S10 4x4 1.99",
  "Scorpio883": "S10 4X4 AT",
  "Scorpio884": "S2",
  "Scorpio885": "S4",
  "Scorpio886": "S4 1.99",
  "Scorpio887": "S4+",
  "Scorpio888": "S4+ 1.99",
  "Scorpio889": "S4+ 4x4",
  "Scorpio890": "S4+ 4x4 1.99",
  "Scorpio891": "S6 +",
  "Scorpio892": "S6+ 1.99",
  "Scorpio893": "S8",
  "Scorpio894": "S8 1.99",
  "ScorpioGetaway895": "2WD",
  "ScorpioGetaway896": "4WD",
  "SLKClass897": "350",
  "SLKClass898": "55 AMG",
  "Spark899": "1.0",
  "Spark900": "1.0 BS3",
  "Spark901": "1.0 LS BS3",
  "Spark902": "1.0 LT BS3",
  "Spark903": "LS",
  "Spark904": "LS LPG",
  "Spark905": "LT",
  "Spark906": "LT LPG",
  "Sportsman907": "500 HO",
  "Sportsman908": "90",
  "Sportsman909": "Touring 500 HO",
  "SumoGold910": "CX",
  "SumoGold911": "CX-BS 3",
  "SumoGold912": "CX-PS",
  "SumoGold913": "EX",
  "SumoGold914": "EX-BS 3",
  "SumoGold915": "FX",
  "SumoGold916": "GX",
  "SumoGold917": "LX",
  "SumoGold918": "LX-BS 3",
  "Sunny919": "XE Diesel",
  "Sunny920": "XE Petrol",
  "Sunny921": "XL CVT Petrol",
  "Sunny922": "XL Diesel",
  "Sunny923": "XL Petrol",
  "Sunny924": "XV Diesel",
  "Sunny925": "XV Diesel Premium 1",
  "Sunny926": "XV Diesel Premium 2",
  "Superb927": "L&K 1.8 TSI AT",
  "Superb928": "L&K 2.0 TDI AT",
  "Superb929": "Style 1.8 TSI",
  "Superb930": "Style 1.8 TSI AT",
  "Superb931": "Style 2.0 TDI AT",
  "Swift932": "LDi",
  "Swift933": "LDi SP Limited Edition",
  "Swift934": "LXi",
  "Swift935": "LXi (O)",
  "Swift936": "LXi (O) SP Limited Edition",
  "Swift937": "VDi",
  "Swift938": "VXi",
  "Swift939": "ZDi",
  "Swift940": "ZXi",
  "SwiftDZire941": "LDi",
  "SwiftDZire942": "LDi (O)",
  "SwiftDZire943": "LXi",
  "SwiftDZire944": "LXi (O)",
  "SwiftDZire945": "LXi Optional (O)",
  "SwiftDZire946": "VDi",
  "SwiftDZire947": "VDi (O)",
  "SwiftDZire948": "VXi",
  "SwiftDZire949": "VXi (O)",
  "SwiftDZire950": "VXi AT",
  "SwiftDZire951": "VXi AT (O)",
  "SwiftDZire952": "ZDi",
  "SwiftDZire953": "ZDi AGS",
  "SwiftDZire954": "ZXi",
  "SwiftDZireTour955": "LDi",
  "TaveraNeo3956": "10 Seats BSIII",
  "TaveraNeo3957": "LS",
  "TaveraNeo3958": "LT",
  "TaveraNeo3959": "LT 8 Seats BSIII ",
  "TaveraNeo3960": "Max",
  "TaveraNeo3961": "Max 10 Seats BSIII ",
  "TaveraNeo3962": "Standard",
  "Terrano963": "1.5 XE 85",
  "Terrano964": "1.5 XL 110",
  "Terrano965": "1.5 XL 85",
  "Terrano966": "1.5 XL Plus 85",
  "Terrano967": "1.5 XV 110",
  "Terrano968": "1.5 XV Premium 110",
  "Terrano969": "1.6 XL 104",
  "Thar970": "CRDe",
  "Thar971": "DI 4X2",
  "Thar972": "DI 4X2 PS",
  "Thar973": "DI 4X4",
  "Tiago974": "Revotorq XB",
  "Tiago975": "Revotorq XE",
  "Tiago976": "Revotorq XE Option",
  "Tiago977": "Revotorq XM",
  "Tiago978": "Revotorq XM Option",
  "Tiago979": "Revotorq XT",
  "Tiago980": "Revotorq XT Option",
  "Tiago981": "Revotorq XZ",
  "Tiago982": "Revotron XB",
  "Tiago983": "Revotron XE",
  "Tiago984": "Revotron XE Option",
  "Tiago985": "Revotron XM",
  "Tiago986": "Revotron XM Option",
  "Tiago987": "Revotron XT",
  "Tiago988": "Revotron XT Option",
  "Tiago989": "Revotron XZ",
  "TrailBoss990": "330 Broad walk",
  "TrailBlazer991": "LTZ 2WD AT",
  "TraxGamaClassic992": "DLX",
  "TraxGamaClassic993": "Taxi",
  "TT994": "Coupe 45 TFSI S Tronic",
  "TUV300995": "T4",
  "TUV300996": "T4+",
  "TUV300997": "T6",
  "TUV300998": "T6+",
  "TUV300999": "T6+ AMT",
  "TUV3001000": "T8",
  "TUV3001001": "T8 AMT",
  "V401002": "D3 Kinetic",
  "V401003": "D3 R-Design",
  "V40CrossCountry1004": "D3",
  "V40CrossCountry1005": "T4",
  "V8Vantage1006": "N420",
  "Vento1007": "1.2 TSI Comfortline AT",
  "Vento1008": "1.2 TSI Highline AT",
  "Vento1009": "1.5 TDI Comfortline",
  "Vento1010": "1.5 TDI Comfortline AT",
  "Vento1011": "1.5 TDI Highline",
  "Vento1012": "1.5 TDI Highline AT",
  "Vento1013": "1.5 TDI Trendline",
  "Vento1014": "1.6 MPI Comfortline",
  "Vento1015": "1.6 MPI Highline",
  "Vento1016": "1.6 MPI Trendline",
  "Venture1017": "EX",
  "Venture1018": "GX",
  "Venture1019": "LX",
  "Verito1020": "1.4 G2",
  "Verito1021": "1.4 G2 BSIII ",
  "Verito1022": "1.4 G4",
  "Verito1023": "1.4 G4 BSIII",
  "Verito1024": "1.5 D2",
  "Verito1025": "1.5 D2 BSIII",
  "Verito1026": "1.5 D4",
  "Verito1027": "1.5 D4 BSIII",
  "Verito1028": "1.5 D6",
  "Verito1029": "1.5 D6 BSIII",
  "VeritoVibe1030": "D2",
  "VeritoVibe1031": "D4",
  "VeritoVibe1032": "D6",
  "Verna4S1033": "1.4 CRDi Base",
  "Verna4S1034": "1.4 VTVT Base",
  "Verna4S1035": "1.6 CRDi VGT S",
  "Verna4S1036": "1.6 CRDi VGT SX",
  "Verna4S1037": "1.6 CRDi VGT SX(O)",
  "Verna4S1038": "1.6 VTVT S",
  "Verna4S1039": "1.6 VTVT SX",
  "Verna4S1040": "1.6 VTVT SX(O)",
  "Veyron1041": "16.4 Grand Sport",
  "VitaraBrezza1042": "LDi",
  "VitaraBrezza1043": "LDi (O)",
  "VitaraBrezza1044": "VDi",
  "VitaraBrezza1045": "VDi (O)",
  "VitaraBrezza1046": "ZDi",
  "VitaraBrezza1047": "ZDi+",
  "VitaraBrezza1048": "ZDi+ Dual Tone",
  "WagonR1049": "Lxi",
  "WagonR1050": "Lxi (O)",
  "WagonR1051": "Lxi CNG",
  "WagonR1052": "Vxi",
  "WagonR1053": "Vxi (O)",
  "WagonR1054": "Vxi (O) AMT",
  "WagonR1055": "Vxi AMT",
  "WagonRStingray1056": "LXi",
  "WagonRStingray1057": "LXi (O)",
  "WagonRStingray1058": "VXi",
  "WagonRStingray1059": "VXi (O)",
  "WagonRStingray1060": "VXi AMT",
  "WagonRStingray1061": "VXi AMT (O)",
  "Winger1062": "Deluxe",
  "Winger1063": "Luxury",
  "Winger1064": "Standard",
  "Wraith1065": "Base",
  "X11066": "sDrive20d Expedition",
  "X11067": "sDrive20d xLine",
  "X11068": "xDrive20d M Sport",
  "X11069": "xDrive20d xLine",
  "X31070": "xDrive20d Expedition",
  "X31071": "xDrive20d xLine",
  "X31072": "xDrive30d M Sport",
  "X51073": "X5 M",
  "X51074": "xDrive30d Design Pure Experience",
  "X51075": "xDrive30d Design Pure Experience 7-Seater",
  "X51076": "xDrive30d Expedition",
  "X51077": "xDrive30d M Sport",
  "X61078": "X6 M",
  "X61079": "xDrive 40d M Sport",
  "XC601080": "D4 Kinetic",
  "XC601081": "D4 Summum",
  "XC601082": "D5 Summum",
  "XC901083": "D5 Inscription",
  "XC901084": "D5 Momentum",
  "Xcent1085": "Base",
  "Xcent1086": "Base Diesel",
  "Xcent1087": "S",
  "Xcent1088": "S 20th Anniversary Special Edition",
  "Xcent1089": "S AT",
  "Xcent1090": "S Diesel",
  "Xcent1091": "S Diesel 20th Anniversary Special Edition",
  "Xcent1092": "SX",
  "Xcent1093": "SX (O)",
  "Xcent1094": "SX (O) AT",
  "Xcent1095": "SX (O) Diesel",
  "XE1096": "Portfolio",
  "XE1097": "Prestige",
  "XE1098": "Pure",
  "XenonXT1099": "EX 4x2",
  "XenonXT1100": "EX 4x4",
  "XF1101": "2.0 Petrol",
  "XF1102": "2.2 Diesel",
  "XF1103": "2.2 Diesel Executive Edition",
  "XF1104": "3.0 Diesel",
  "XF1105": "Aero Sport Edition",
  "XJL1106": "2.0L",
  "XJL1107": "3.0L LWB Ultimate",
  "XJL1108": "3.0L Portfolio",
  "XJL1109": "3.0L Premium Luxury",
  "XUV5001110": "W10",
  "XUV5001111": "W10 1.99",
  "XUV5001112": "W10 1.99 AWD",
  "XUV5001113": "W10 AT",
  "XUV5001114": "W10 AWD",
  "XUV5001115": "W10 AWD AT",
  "XUV5001116": "W4",
  "XUV5001117": "W4 1.99",
  "XUV5001118": "W6",
  "XUV5001119": "W6 1.99",
  "XUV5001120": "W6 AT",
  "XUV5001121": "W8",
  "XUV5001122": "W8 1.99",
  "XUV5001123": "W8 1.99 AWD",
  "XUV5001124": "W8 AT",
  "XUV5001125": "W8 AWD",
  "Xylo1126": "D2",
  "Xylo1127": "D2 Maxx",
  "Xylo1128": "D4",
  "Xylo1129": "D4 BS III",
  "Xylo1130": "H4",
  "Xylo1131": "H4 ABS",
  "Xylo1132": "H8 ABS AIRBAG",
  "Xylo1133": "H9",
  "Yeti1134": "4x2 Elegance",
  "Yeti1135": "4x4 Elegance",
  "Z41136": "sDrive35i",
  "Z41137": "sDrive35i DPT",
  "Zest1138": "Diesel Anniversary Edition",
  "Zest1139": "Diesel XE",
  "Zest1140": "Diesel XM",
  "Zest1141": "Diesel XMA (A/T)",
  "Zest1142": "Diesel XMS",
  "Zest1143": "Diesel XT",
  "Zest1144": "Petrol Anniversary Edition",
  "Zest1145": "Petrol XE",
  "Zest1146": "Petrol XM",
  "Zest1147": "Petrol XMS",
  "Zest1148": "Petrol XT",
  "Zest1149": "XTA"
}